/* XPM */
static char * application_manager_xpm[] = {
"20 20 2 1",
" 	c None",
".	c #BF0348",
"                    ",
"        ....        ",
"      .........     ",
"     ...     ...    ",
"    ..        ...   ",
"   ..          ...  ",
"   .     ...   ..   ",
"  ..            .   ",
"  ..    .       .   ",
"  ..    .      ..   ",
"  .     .      .    ",
"  ..    .     .     ",
"  ..     .. ..      ",
"   ..      .        ",
"   ..               ",
"   ..               ",
"    ..              ",
"     ..             ",
"      ...           ",
"         ...        "};
